System Name,Service Name,Service Type,Service State, Exit Code,Process ID,Can Be Paused,Can Be Stopped,Caption,Description,Can Interact with Desktop,Display Name,Error Control, Executable Path Name,Service Started,Start Mode,Account Name 
AREA51,Alerter,Share Process,Running,0,248,False,True,Alerter,Alerter,False,Alerter,Normal,C:\WINNT\System32\services.exe,True,Auto,LocalSystem,
AREA51,AppMgmt,Share Process,Stopped,1077,0,False,False,Application Management,Application Management,False,Application Management,Normal,C:\WINNT\system32\services.exe,False,Manual,LocalSystem,
AREA51,BITS,Share Process,Running,0,1144,False,True,Background Intelligent Transfer Service,Background Intelligent Transfer Service,False,Background Intelligent Transfer Service,Normal,C:\WINNT\System32\svchost.exe -k BITSgroup,True,Manual,LocalSystem,
AREA51,Browser,Share Process,Running,0,248,False,True,Computer Browser,Computer Browser,False,Computer Browser,Normal,C:\WINNT\System32\services.exe,True,Auto,LocalSystem,
AREA51,cisvc,Share Process,Stopped,1077,0,False,False,Indexing Service,Indexing Service,True,Indexing Service,Normal,C:\WINNT\System32\cisvc.exe,False,Manual,LocalSystem,
AREA51,ClipSrv,Own Process,Stopped,1077,0,False,False,ClipBook,ClipBook,False,ClipBook,Normal,C:\WINNT\system32\clipsrv.exe,False,Manual,LocalSystem,
AREA51,Dfs,Own Process,Running,0,936,False,True,Distributed File System,Distributed File System,False,Distributed File System,Normal,C:\WINNT\system32\Dfssvc.exe,True,Auto,LocalSystem,
AREA51,Dhcp,Share Process,Running,0,248,False,True,DHCP Client,DHCP Client,False,DHCP Client,Normal,C:\WINNT\System32\services.exe,True,Auto,LocalSystem,
AREA51,dmadmin,Share Process,Stopped,1077,0,False,False,Logical Disk Manager Administrative Service,Logical Disk Manager Administrative Service,False,Logical Disk Manager Administrative Service,Normal,C:\WINNT\System32\dmadmin.exe /com,False,Manual,LocalSystem,
AREA51,dmserver,Share Process,Running,0,248,False,True,Logical Disk Manager,Logical Disk Manager,False,Logical Disk Manager,Normal,C:\WINNT\System32\services.exe,True,Auto,LocalSystem,
AREA51,Dnscache,Share Process,Running,0,248,False,True,DNS Client,DNS Client,False,DNS Client,Normal,C:\WINNT\System32\services.exe,True,Auto,LocalSystem,
AREA51,Eventlog,Share Process,Running,0,248,False,False,Event Log,Event Log,False,Event Log,Normal,C:\WINNT\system32\services.exe,True,Auto,LocalSystem,
AREA51,EventSystem,Share Process,Running,0,704,False,True,COM+ Event System,COM+ Event System,False,COM+ Event System,Normal,C:\WINNT\System32\svchost.exe -k netsvcs,True,Manual,LocalSystem,
AREA51,Fax,Own Process,Stopped,1077,0,False,False,Fax Service,Fax Service,True,Fax Service,Normal,C:\WINNT\system32\faxsvc.exe,False,Manual,LocalSystem,
AREA51,IISADMIN,Share Process,Running,0,960,True,True,IIS Admin Service,IIS Admin Service,False,IIS Admin Service,Normal,C:\WINNT\System32\inetsrv\inetinfo.exe,True,Auto,LocalSystem,
AREA51,IsmServ,Own Process,Stopped,1077,0,False,False,Intersite Messaging,Intersite Messaging,False,Intersite Messaging,Normal,C:\WINNT\System32\ismserv.exe,False,Disabled,LocalSystem,
AREA51,kdc,Share Process,Stopped,1077,0,False,False,Kerberos Key Distribution Center,Kerberos Key Distribution Center,False,Kerberos Key Distribution Center,Normal,C:\WINNT\System32\lsass.exe,False,Disabled,LocalSystem,
AREA51,lanmanserver,Share Process,Running,0,248,True,True,Server,Server,False,Server,Normal,C:\WINNT\System32\services.exe,True,Auto,LocalSystem,
AREA51,lanmanworkstation,Share Process,Running,0,248,True,True,Workstation,Workstation,False,Workstation,Normal,C:\WINNT\System32\services.exe,True,Auto,LocalSystem,
AREA51,LicenseService,Own Process,Running,0,728,False,True,License Logging Service,License Logging Service,False,License Logging Service,Normal,C:\WINNT\System32\llssrv.exe,True,Auto,LocalSystem,
AREA51,LmHosts,Share Process,Running,0,248,False,True,TCP/IP NetBIOS Helper Service,TCP/IP NetBIOS Helper Service,False,TCP/IP NetBIOS Helper Service,Normal,C:\WINNT\System32\services.exe,True,Auto,LocalSystem,
AREA51,Messenger,Share Process,Running,0,248,False,True,Messenger,Messenger,False,Messenger,Normal,C:\WINNT\System32\services.exe,True,Auto,LocalSystem,
AREA51,mnmsrvc,Own Process,Stopped,1077,0,False,False,NetMeeting Remote Desktop Sharing,NetMeeting Remote Desktop Sharing,True,NetMeeting Remote Desktop Sharing,Normal,C:\WINNT\System32\mnmsrvc.exe,False,Manual,LocalSystem,
AREA51,MSDTC,Own Process,Running,0,580,False,True,Distributed Transaction Coordinator,Distributed Transaction Coordinator,True,Distributed Transaction Coordinator,Normal,C:\WINNT\System32\msdtc.exe,True,Auto,LocalSystem,
AREA51,MSIServer,Share Process,Stopped,0,0,False,False,Windows Installer,Windows Installer,True,Windows Installer,Normal,C:\WINNT\System32\MsiExec.exe /V,False,Manual,LocalSystem,
AREA51,NetDDE,Share Process,Stopped,1077,0,False,False,Network DDE,Network DDE,False,Network DDE,Normal,C:\WINNT\system32\netdde.exe,False,Manual,LocalSystem,
AREA51,NetDDEdsdm,Share Process,Stopped,1077,0,False,False,Network DDE DSDM,Network DDE DSDM,False,Network DDE DSDM,Normal,C:\WINNT\system32\netdde.exe,False,Manual,LocalSystem,
AREA51,Netlogon,Share Process,Running,0,260,True,True,Net Logon,Net Logon,False,Net Logon,Normal,C:\WINNT\System32\lsass.exe,True,Auto,LocalSystem,
AREA51,Netman,Share Process,Running,0,704,False,True,Network Connections,Network Connections,True,Network Connections,Normal,C:\WINNT\System32\svchost.exe -k netsvcs,True,Manual,LocalSystem,
AREA51,NtFrs,Own Process,Stopped,1077,0,False,False,File Replication,File Replication,False,File Replication,Ignore,C:\WINNT\system32\ntfrs.exe,False,Manual,LocalSystem,
AREA51,NtLmSsp,Share Process,Stopped,1077,0,False,False,NT LM Security Support Provider,NT LM Security Support Provider,False,NT LM Security Support Provider,Normal,C:\WINNT\System32\lsass.exe,False,Manual,LocalSystem,
AREA51,NtmsSvc,Share Process,Running,0,704,True,True,Removable Storage,Removable Storage,True,Removable Storage,Normal,C:\WINNT\System32\svchost.exe -k netsvcs,True,Auto,LocalSystem,
AREA51,PlugPlay,Share Process,Running,0,248,False,False,Plug and Play,Plug and Play,False,Plug and Play,Normal,C:\WINNT\system32\services.exe,True,Auto,LocalSystem,
AREA51,PolicyAgent,Share Process,Running,0,260,False,True,IPSEC Policy Agent,IPSEC Policy Agent,False,IPSEC Policy Agent,Normal,C:\WINNT\System32\lsass.exe,True,Auto,LocalSystem,
AREA51,ProtectedStorage,Share Process,Running,0,248,False,True,Protected Storage,Protected Storage,True,Protected Storage,Normal,C:\WINNT\system32\services.exe,True,Auto,LocalSystem,
AREA51,RasAuto,Share Process,Stopped,1077,0,False,False,Remote Access Auto Connection Manager,Remote Access Auto Connection Manager,True,Remote Access Auto Connection Manager,Normal,C:\WINNT\System32\svchost.exe -k netsvcs,False,Manual,LocalSystem,
AREA51,RasMan,Share Process,Stopped,0,0,False,False,Remote Access Connection Manager,Remote Access Connection Manager,True,Remote Access Connection Manager,Normal,C:\WINNT\System32\svchost.exe -k netsvcs,False,Manual,LocalSystem,
AREA51,RemoteAccess,Share Process,Stopped,1077,0,False,False,Routing and Remote Access,Routing and Remote Access,True,Routing and Remote Access,Normal,C:\WINNT\System32\svchost.exe -k netsvcs,False,Disabled,LocalSystem,
AREA51,RemoteRegistry,Own Process,Running,0,780,False,True,Remote Registry Service,Remote Registry Service,False,Remote Registry Service,Normal,C:\WINNT\system32\regsvc.exe,True,Auto,LocalSystem,
AREA51,RpcLocator,Own Process,Stopped,1077,0,False,False,Remote Procedure Call (RPC) Locator,Remote Procedure Call (RPC) Locator,False,Remote Procedure Call (RPC) Locator,Normal,C:\WINNT\System32\locator.exe,False,Manual,LocalSystem,
AREA51,RpcSs,Share Process,Running,0,500,False,False,Remote Procedure Call (RPC),Remote Procedure Call (RPC),False,Remote Procedure Call (RPC),Normal,C:\WINNT\system32\svchost -k rpcss,True,Auto,LocalSystem,
AREA51,RSVP,Own Process,Stopped,1077,0,False,False,QoS RSVP,QoS RSVP,True,QoS RSVP,Normal,C:\WINNT\System32\rsvp.exe -s,False,Manual,LocalSystem,
AREA51,SamSs,Share Process,Running,0,260,False,False,Security Accounts Manager,Security Accounts Manager,False,Security Accounts Manager,Normal,C:\WINNT\system32\lsass.exe,True,Auto,LocalSystem,
AREA51,SCardDrv,Share Process,Stopped,1077,0,False,False,Smart Card Helper,Smart Card Helper,False,Smart Card Helper,Ignore,C:\WINNT\System32\SCardSvr.exe,False,Manual,LocalSystem,
AREA51,SCardSvr,Share Process,Stopped,1077,0,False,False,Smart Card,Smart Card,False,Smart Card,Ignore,C:\WINNT\System32\SCardSvr.exe,False,Manual,LocalSystem,
AREA51,Schedule,Share Process,Running,0,800,True,True,Task Scheduler,Task Scheduler,True,Task Scheduler,Normal,C:\WINNT\system32\MSTask.exe,True,Auto,LocalSystem,
AREA51,seclogon,Share Process,Running,0,248,False,True,RunAs Service,RunAs Service,True,RunAs Service,Ignore,C:\WINNT\system32\services.exe,True,Auto,LocalSystem,
AREA51,SENS,Share Process,Running,0,704,False,True,System Event Notification,System Event Notification,False,System Event Notification,Normal,C:\WINNT\system32\svchost.exe -k netsvcs,True,Auto,LocalSystem,
AREA51,ServeRAIDManagerAgent,Own Process,Running,0,852,False,True,ServeRAID Manager Agent,ServeRAID Manager Agent,False,ServeRAID Manager Agent,Normal,C:\Program Files\RaidMan\RaidServ.exe,True,Auto,LocalSystem,
AREA51,SharedAccess,Share Process,Stopped,1077,0,False,False,Internet Connection Sharing,Internet Connection Sharing,True,Internet Connection Sharing,Normal,C:\WINNT\System32\svchost.exe -k netsvcs,False,Manual,LocalSystem,
AREA51,Spooler,Own Process,Running,0,528,False,True,Print Spooler,Print Spooler,True,Print Spooler,Normal,C:\WINNT\system32\spoolsv.exe,True,Auto,LocalSystem,
AREA51,SysmonLog,Own Process,Stopped,1077,0,False,False,Performance Logs and Alerts,Performance Logs and Alerts,False,Performance Logs and Alerts,Normal,C:\WINNT\system32\smlogsvc.exe,False,Manual,LocalSystem,
AREA51,TapiSrv,Share Process,Running,0,1316,True,True,Telephony,Telephony,True,Telephony,Normal,C:\WINNT\System32\svchost.exe -k tapisrv,True,Manual,LocalSystem,
AREA51,TermService,Own Process,Running,0,380,False,False,Terminal Services,Terminal Services,False,Terminal Services,Normal,C:\WINNT\System32\termsrv.exe,True,Auto,LocalSystem,
AREA51,TlntSvr,Own Process,Stopped,1077,0,False,False,Telnet,Telnet,False,Telnet,Normal,C:\WINNT\system32\tlntsvr.exe,False,Manual,LocalSystem,
AREA51,TrkSvr,Share Process,Stopped,1077,0,False,False,Distributed Link Tracking Server,Distributed Link Tracking Server,False,Distributed Link Tracking Server,Normal,C:\WINNT\system32\services.exe,False,Manual,LocalSystem,
AREA51,TrkWks,Share Process,Running,0,248,False,True,Distributed Link Tracking Client,Distributed Link Tracking Client,False,Distributed Link Tracking Client,Normal,C:\WINNT\system32\services.exe,True,Auto,LocalSystem,
AREA51,UPS,Own Process,Stopped,1077,0,False,False,Uninterruptible Power Supply,Uninterruptible Power Supply,False,Uninterruptible Power Supply,Normal,C:\WINNT\System32\ups.exe,False,Manual,LocalSystem,
AREA51,UtilMan,Own Process,Stopped,1077,0,False,False,Utility Manager,Utility Manager,True,Utility Manager,Normal,C:\WINNT\System32\UtilMan.exe,False,Manual,LocalSystem,
AREA51,W32Time,Share Process,Running,0,248,False,True,Windows Time,Windows Time,False,Windows Time,Normal,C:\WINNT\System32\services.exe,True,Auto,LocalSystem,
AREA51,W3SVC,Share Process,Running,0,960,True,True,World Wide Web Publishing Service,World Wide Web Publishing Service,False,World Wide Web Publishing Service,Normal,C:\WINNT\System32\inetsrv\inetinfo.exe,True,Auto,LocalSystem,
AREA51,WinMgmt,Own Process,Running,0,908,False,True,Windows Management Instrumentation,Windows Management Instrumentation,False,Windows Management Instrumentation,Ignore,C:\WINNT\System32\WBEM\WinMgmt.exe,True,Auto,LocalSystem,
AREA51,Wmi,Share Process,Running,0,248,False,True,Windows Management Instrumentation Driver Extensions,Windows Management Instrumentation Driver Extensions,False,Windows Management Instrumentation Driver Extensions,Normal,C:\WINNT\system32\Services.exe,True,Manual,LocalSystem,
AREA51,wuauserv,Share Process,Running,0,920,False,True,Automatic Updates,Automatic Updates,False,Automatic Updates,Normal,C:\WINNT\system32\svchost.exe -k wugroup,True,Auto,LocalSystem,
