System Name,Service Name,Service Type,Service State, Exit Code,Process ID,Can Be Paused,Can Be Stopped,Caption,Description,Can Interact with Desktop,Display Name,Error Control, Executable Path Name,Service Started,Start Mode,Account Name 
AS6,Alerter,Share Process,Running,0,252,False,True,Alerter,Alerter,False,Alerter,Normal,C:\WINNT\System32\services.exe,True,Auto,LocalSystem,
AS6,AppMgmt,Share Process,Stopped,1077,0,False,False,Application Management,Application Management,False,Application Management,Normal,C:\WINNT\system32\services.exe,False,Manual,LocalSystem,
AS6,BITS,Share Process,Running,0,1532,False,True,Background Intelligent Transfer Service,Background Intelligent Transfer Service,False,Background Intelligent Transfer Service,Normal,C:\WINNT\System32\svchost.exe -k BITSgroup,True,Manual,LocalSystem,
AS6,Browser,Share Process,Running,0,252,False,True,Computer Browser,Computer Browser,False,Computer Browser,Normal,C:\WINNT\System32\services.exe,True,Auto,LocalSystem,
AS6,cisvc,Share Process,Stopped,1077,0,False,False,Indexing Service,Indexing Service,True,Indexing Service,Normal,C:\WINNT\System32\cisvc.exe,False,Manual,LocalSystem,
AS6,ClipSrv,Own Process,Stopped,1077,0,False,False,ClipBook,ClipBook,False,ClipBook,Normal,C:\WINNT\system32\clipsrv.exe,False,Manual,LocalSystem,
AS6,DefWatch,Own Process,Running,0,736,False,True,DefWatch,DefWatch,True,DefWatch,Ignore,C:\Program Files\Navnt\DefWatch.exe,True,Auto,LocalSystem,
AS6,Dfs,Own Process,Running,0,1128,False,True,Distributed File System,Distributed File System,False,Distributed File System,Normal,C:\WINNT\system32\Dfssvc.exe,True,Auto,LocalSystem,
AS6,Dhcp,Share Process,Running,0,252,False,True,DHCP Client,DHCP Client,False,DHCP Client,Normal,C:\WINNT\System32\services.exe,True,Auto,LocalSystem,
AS6,dmadmin,Share Process,Stopped,1077,0,False,False,Logical Disk Manager Administrative Service,Logical Disk Manager Administrative Service,False,Logical Disk Manager Administrative Service,Normal,C:\WINNT\System32\dmadmin.exe /com,False,Manual,LocalSystem,
AS6,dmserver,Share Process,Running,0,252,False,True,Logical Disk Manager,Logical Disk Manager,False,Logical Disk Manager,Normal,C:\WINNT\System32\services.exe,True,Auto,LocalSystem,
AS6,Dnscache,Share Process,Running,0,252,False,True,DNS Client,DNS Client,False,DNS Client,Normal,C:\WINNT\System32\services.exe,True,Auto,LocalSystem,
AS6,Eventlog,Share Process,Running,0,252,False,False,Event Log,Event Log,False,Event Log,Normal,C:\WINNT\system32\services.exe,True,Auto,LocalSystem,
AS6,EventSystem,Share Process,Running,0,756,False,True,COM+ Event System,COM+ Event System,False,COM+ Event System,Normal,C:\WINNT\System32\svchost.exe -k netsvcs,True,Manual,LocalSystem,
AS6,Fax,Own Process,Stopped,1077,0,False,False,Fax Service,Fax Service,True,Fax Service,Normal,C:\WINNT\system32\faxsvc.exe,False,Manual,LocalSystem,
AS6,IsmServ,Own Process,Stopped,1077,0,False,False,Intersite Messaging,Intersite Messaging,False,Intersite Messaging,Normal,C:\WINNT\System32\ismserv.exe,False,Disabled,LocalSystem,
AS6,kdc,Share Process,Stopped,1077,0,False,False,Kerberos Key Distribution Center,Kerberos Key Distribution Center,False,Kerberos Key Distribution Center,Normal,C:\WINNT\System32\lsass.exe,False,Disabled,LocalSystem,
AS6,lanmanserver,Share Process,Running,0,252,True,True,Server,Server,False,Server,Normal,C:\WINNT\System32\services.exe,True,Auto,LocalSystem,
AS6,lanmanworkstation,Share Process,Running,0,252,True,True,Workstation,Workstation,False,Workstation,Normal,C:\WINNT\System32\services.exe,True,Auto,LocalSystem,
AS6,LicenseService,Own Process,Running,0,780,False,True,License Logging Service,License Logging Service,False,License Logging Service,Normal,C:\WINNT\System32\llssrv.exe,True,Auto,LocalSystem,
AS6,LmHosts,Share Process,Running,0,252,False,True,TCP/IP NetBIOS Helper Service,TCP/IP NetBIOS Helper Service,False,TCP/IP NetBIOS Helper Service,Normal,C:\WINNT\System32\services.exe,True,Auto,LocalSystem,
AS6,LogWatch,Own Process,Running,0,808,False,True,Event Log Watch,Event Log Watch,True,Event Log Watch,Ignore,C:\WINNT\LogWatNT.exe,True,Auto,LocalSystem,
AS6,Messenger,Share Process,Running,0,252,False,True,Messenger,Messenger,False,Messenger,Normal,C:\WINNT\System32\services.exe,True,Auto,LocalSystem,
AS6,mnmsrvc,Own Process,Paused,0,848,True,True,NetMeeting Remote Desktop Sharing,NetMeeting Remote Desktop Sharing,True,NetMeeting Remote Desktop Sharing,Normal,C:\WINNT\System32\mnmsrvc.exe,True,Auto,LocalSystem,
AS6,MSDTC,Own Process,Running,0,616,False,True,Distributed Transaction Coordinator,Distributed Transaction Coordinator,True,Distributed Transaction Coordinator,Normal,C:\WINNT\System32\msdtc.exe,True,Auto,LocalSystem,
AS6,MSIServer,Share Process,Stopped,1077,0,False,False,Windows Installer,Windows Installer,True,Windows Installer,Normal,C:\WINNT\System32\MsiExec.exe /V,False,Manual,LocalSystem,
AS6,NetDDE,Share Process,Stopped,1077,0,False,False,Network DDE,Network DDE,False,Network DDE,Normal,C:\WINNT\system32\netdde.exe,False,Manual,LocalSystem,
AS6,NetDDEdsdm,Share Process,Stopped,1077,0,False,False,Network DDE DSDM,Network DDE DSDM,False,Network DDE DSDM,Normal,C:\WINNT\system32\netdde.exe,False,Manual,LocalSystem,
AS6,Netlogon,Share Process,Running,0,264,True,True,Net Logon,Net Logon,False,Net Logon,Normal,C:\WINNT\System32\lsass.exe,True,Auto,LocalSystem,
AS6,Netman,Share Process,Running,0,756,False,True,Network Connections,Network Connections,True,Network Connections,Normal,C:\WINNT\System32\svchost.exe -k netsvcs,True,Manual,LocalSystem,
AS6,Norton AntiVirus Server,Own Process,Running,0,932,False,True,Symantec AntiVirus Client,Symantec AntiVirus Client,True,Symantec AntiVirus Client,Ignore,C:\Program Files\Navnt\rtvscan.exe,True,Auto,LocalSystem,
AS6,NtFrs,Own Process,Stopped,1077,0,False,False,File Replication,File Replication,False,File Replication,Ignore,C:\WINNT\system32\ntfrs.exe,False,Manual,LocalSystem,
AS6,NtLmSsp,Share Process,Stopped,1077,0,False,False,NT LM Security Support Provider,NT LM Security Support Provider,False,NT LM Security Support Provider,Normal,C:\WINNT\System32\lsass.exe,False,Manual,LocalSystem,
AS6,NtmsSvc,Share Process,Running,0,756,True,True,Removable Storage,Removable Storage,True,Removable Storage,Normal,C:\WINNT\System32\svchost.exe -k netsvcs,True,Auto,LocalSystem,
AS6,PlugPlay,Share Process,Running,0,252,False,False,Plug and Play,Plug and Play,False,Plug and Play,Normal,C:\WINNT\system32\services.exe,True,Auto,LocalSystem,
AS6,PolicyAgent,Share Process,Running,0,264,False,True,IPSEC Policy Agent,IPSEC Policy Agent,False,IPSEC Policy Agent,Normal,C:\WINNT\System32\lsass.exe,True,Auto,LocalSystem,
AS6,ProtectedStorage,Share Process,Running,0,252,False,True,Protected Storage,Protected Storage,True,Protected Storage,Normal,C:\WINNT\system32\services.exe,True,Auto,LocalSystem,
AS6,RasAuto,Share Process,Stopped,1077,0,False,False,Remote Access Auto Connection Manager,Remote Access Auto Connection Manager,True,Remote Access Auto Connection Manager,Normal,C:\WINNT\System32\svchost.exe -k netsvcs,False,Manual,LocalSystem,
AS6,RasMan,Share Process,Running,0,756,False,True,Remote Access Connection Manager,Remote Access Connection Manager,True,Remote Access Connection Manager,Normal,C:\WINNT\System32\svchost.exe -k netsvcs,True,Manual,LocalSystem,
AS6,RemoteAccess,Share Process,Stopped,1077,0,False,False,Routing and Remote Access,Routing and Remote Access,True,Routing and Remote Access,Normal,C:\WINNT\System32\svchost.exe -k netsvcs,False,Disabled,LocalSystem,
AS6,RemoteRegistry,Own Process,Running,0,956,False,True,Remote Registry Service,Remote Registry Service,False,Remote Registry Service,Normal,C:\WINNT\system32\regsvc.exe,True,Auto,LocalSystem,
AS6,RpcLocator,Own Process,Stopped,1077,0,False,False,Remote Procedure Call (RPC) Locator,Remote Procedure Call (RPC) Locator,False,Remote Procedure Call (RPC) Locator,Normal,C:\WINNT\System32\locator.exe,False,Manual,LocalSystem,
AS6,RpcSs,Share Process,Running,0,492,False,False,Remote Procedure Call (RPC),Remote Procedure Call (RPC),False,Remote Procedure Call (RPC),Normal,C:\WINNT\system32\svchost -k rpcss,True,Auto,LocalSystem,
AS6,RSVP,Own Process,Stopped,1077,0,False,False,QoS RSVP,QoS RSVP,True,QoS RSVP,Normal,C:\WINNT\System32\rsvp.exe -s,False,Manual,LocalSystem,
AS6,SamSs,Share Process,Running,0,264,False,False,Security Accounts Manager,Security Accounts Manager,False,Security Accounts Manager,Normal,C:\WINNT\system32\lsass.exe,True,Auto,LocalSystem,
AS6,SCardDrv,Share Process,Stopped,1077,0,False,False,Smart Card Helper,Smart Card Helper,False,Smart Card Helper,Ignore,C:\WINNT\System32\SCardSvr.exe,False,Manual,LocalSystem,
AS6,SCardSvr,Share Process,Stopped,1077,0,False,False,Smart Card,Smart Card,False,Smart Card,Ignore,C:\WINNT\System32\SCardSvr.exe,False,Manual,LocalSystem,
AS6,Schedule,Share Process,Running,0,968,True,True,Task Scheduler,Task Scheduler,True,Task Scheduler,Normal,C:\WINNT\system32\MSTask.exe,True,Auto,LocalSystem,
AS6,seclogon,Share Process,Running,0,252,False,True,RunAs Service,RunAs Service,True,RunAs Service,Ignore,C:\WINNT\system32\services.exe,True,Auto,LocalSystem,
AS6,SENS,Share Process,Running,0,756,False,True,System Event Notification,System Event Notification,False,System Event Notification,Normal,C:\WINNT\system32\svchost.exe -k netsvcs,True,Auto,LocalSystem,
AS6,SharedAccess,Share Process,Stopped,1077,0,False,False,Internet Connection Sharing,Internet Connection Sharing,True,Internet Connection Sharing,Normal,C:\WINNT\System32\svchost.exe -k netsvcs,False,Manual,LocalSystem,
AS6,SNMP,Own Process,Running,0,996,False,True,SNMP Service,SNMP Service,False,SNMP Service,Normal,C:\WINNT\System32\snmp.exe,True,Auto,LocalSystem,
AS6,SNMPTRAP,Own Process,Stopped,1077,0,False,False,SNMP Trap Service,SNMP Trap Service,False,SNMP Trap Service,Normal,C:\WINNT\System32\snmptrap.exe,False,Manual,LocalSystem,
AS6,Spooler,Own Process,Running,0,528,False,True,Print Spooler,Print Spooler,True,Print Spooler,Normal,C:\WINNT\system32\spoolsv.exe,True,Auto,LocalSystem,
AS6,SysmonLog,Own Process,Stopped,1077,0,False,False,Performance Logs and Alerts,Performance Logs and Alerts,False,Performance Logs and Alerts,Normal,C:\WINNT\system32\smlogsvc.exe,False,Manual,LocalSystem,
AS6,TapiSrv,Share Process,Running,0,884,True,True,Telephony,Telephony,True,Telephony,Normal,C:\WINNT\System32\svchost.exe -k tapisrv,True,Manual,LocalSystem,
AS6,TermService,Own Process,Running,0,368,False,False,Terminal Services,Terminal Services,False,Terminal Services,Normal,C:\WINNT\System32\termsrv.exe,True,Auto,LocalSystem,
AS6,TlntSvr,Own Process,Stopped,1077,0,False,False,Telnet,Telnet,False,Telnet,Normal,C:\WINNT\system32\tlntsvr.exe,False,Manual,LocalSystem,
AS6,TrkSvr,Share Process,Stopped,1077,0,False,False,Distributed Link Tracking Server,Distributed Link Tracking Server,False,Distributed Link Tracking Server,Normal,C:\WINNT\system32\services.exe,False,Manual,LocalSystem,
AS6,TrkWks,Share Process,Running,0,252,False,True,Distributed Link Tracking Client,Distributed Link Tracking Client,False,Distributed Link Tracking Client,Normal,C:\WINNT\system32\services.exe,True,Auto,LocalSystem,
AS6,UPS,Own Process,Stopped,1077,0,False,False,Uninterruptible Power Supply,Uninterruptible Power Supply,False,Uninterruptible Power Supply,Normal,C:\WINNT\System32\ups.exe,False,Manual,LocalSystem,
AS6,UtilMan,Own Process,Stopped,1077,0,False,False,Utility Manager,Utility Manager,True,Utility Manager,Normal,C:\WINNT\System32\UtilMan.exe,False,Manual,LocalSystem,
AS6,W32Time,Share Process,Running,0,252,False,True,Windows Time,Windows Time,False,Windows Time,Normal,C:\WINNT\System32\services.exe,True,Auto,LocalSystem,
AS6,WinMgmt,Own Process,Running,0,1084,False,True,Windows Management Instrumentation,Windows Management Instrumentation,False,Windows Management Instrumentation,Ignore,C:\WINNT\System32\WBEM\WinMgmt.exe,True,Auto,LocalSystem,
AS6,winvnc,Own Process,Running,0,1096,False,True,VNC Server,VNC Server,True,VNC Server,Normal,"C:\Program Files\RealVNC\WinVNC\WinVNC.exe" -service,True,Auto,LocalSystem,
AS6,Wmi,Share Process,Running,0,252,False,True,Windows Management Instrumentation Driver Extensions,Windows Management Instrumentation Driver Extensions,False,Windows Management Instrumentation Driver Extensions,Normal,C:\WINNT\system32\Services.exe,True,Manual,LocalSystem,
AS6,wuauserv,Share Process,Running,0,1108,False,True,Automatic Updates,Automatic Updates,False,Automatic Updates,Normal,C:\WINNT\system32\svchost.exe -k wugroup,True,Auto,LocalSystem,
AS6,WZCSVC,Share Process,Stopped,1077,0,False,False,Wireless Configuration,Wireless Configuration,False,Wireless Configuration,Normal,C:\WINNT\System32\svchost.exe -k netsvcs,False,Manual,LocalSystem,
