System Name,Service Name,Service Type,Service State, Exit Code,Process ID,Can Be Paused,Can Be Stopped,Caption,Description,Can Interact with Desktop,Display Name,Error Control, Executable Path Name,Service Started,Start Mode,Account Name 
DC1,Alerter,Share Process,Running,0,236,False,True,Alerter,Alerter,False,Alerter,Normal,C:\WINNT\System32\services.exe,True,Auto,LocalSystem,
DC1,AppMgmt,Share Process,Stopped,1077,0,False,False,Application Management,Application Management,False,Application Management,Normal,C:\WINNT\system32\services.exe,False,Manual,LocalSystem,
DC1,BITS,Share Process,Running,0,1476,False,True,Background Intelligent Transfer Service,Background Intelligent Transfer Service,False,Background Intelligent Transfer Service,Normal,C:\WINNT\System32\svchost.exe -k BITSgroup,True,Manual,LocalSystem,
DC1,Browser,Share Process,Running,0,236,False,True,Computer Browser,Computer Browser,False,Computer Browser,Normal,C:\WINNT\System32\services.exe,True,Auto,LocalSystem,
DC1,cisvc,Share Process,Stopped,1077,0,False,False,Indexing Service,Indexing Service,True,Indexing Service,Normal,C:\WINNT\System32\cisvc.exe,False,Manual,LocalSystem,
DC1,ClipSrv,Own Process,Stopped,1077,0,False,False,ClipBook,ClipBook,False,ClipBook,Normal,C:\WINNT\system32\clipsrv.exe,False,Manual,LocalSystem,
DC1,DefWatch,Own Process,Running,0,840,False,True,DefWatch,DefWatch,True,DefWatch,Ignore,C:\PROGRA~1\NavNT\DefWatch.exe,True,Auto,LocalSystem,
DC1,Dfs,Own Process,Running,0,1248,False,True,Distributed File System,Distributed File System,False,Distributed File System,Normal,C:\WINNT\system32\Dfssvc.exe,True,Auto,LocalSystem,
DC1,Dhcp,Share Process,Running,0,236,False,True,DHCP Client,DHCP Client,False,DHCP Client,Normal,C:\WINNT\System32\services.exe,True,Auto,LocalSystem,
DC1,DHCPServer,Share Process,Running,0,856,True,True,DHCP Server,DHCP Server,False,DHCP Server,Normal,C:\WINNT\System32\tcpsvcs.exe,True,Auto,LocalSystem,
DC1,dmadmin,Share Process,Stopped,1077,0,False,False,Logical Disk Manager Administrative Service,Logical Disk Manager Administrative Service,False,Logical Disk Manager Administrative Service,Normal,C:\WINNT\System32\dmadmin.exe /com,False,Manual,LocalSystem,
DC1,dmserver,Share Process,Running,0,236,False,True,Logical Disk Manager,Logical Disk Manager,False,Logical Disk Manager,Normal,C:\WINNT\System32\services.exe,True,Auto,LocalSystem,
DC1,Dnscache,Share Process,Running,0,236,False,True,DNS Client,DNS Client,False,DNS Client,Normal,C:\WINNT\System32\services.exe,True,Auto,LocalSystem,
DC1,EventLog,Share Process,Running,0,236,False,False,Event Log,Event Log,False,Event Log,Normal,C:\WINNT\system32\services.exe,True,Auto,LocalSystem,
DC1,EventSystem,Share Process,Running,0,876,False,True,COM+ Event System,COM+ Event System,False,COM+ Event System,Normal,C:\WINNT\System32\svchost.exe -k netsvcs,True,Manual,LocalSystem,
DC1,Fax,Own Process,Stopped,1077,0,False,False,Fax Service,Fax Service,True,Fax Service,Normal,C:\WINNT\system32\faxsvc.exe,False,Manual,LocalSystem,
DC1,IsmServ,Own Process,Running,0,904,False,True,Intersite Messaging,Intersite Messaging,False,Intersite Messaging,Normal,C:\WINNT\System32\ismserv.exe,True,Auto,LocalSystem,
DC1,kdc,Share Process,Running,0,248,False,True,Kerberos Key Distribution Center,Kerberos Key Distribution Center,False,Kerberos Key Distribution Center,Normal,C:\WINNT\System32\lsass.exe,True,Auto,LocalSystem,
DC1,LanmanServer,Share Process,Running,0,236,True,True,Server,Server,False,Server,Normal,C:\WINNT\System32\services.exe,True,Auto,LocalSystem,
DC1,LanmanWorkstation,Share Process,Running,0,236,True,True,Workstation,Workstation,False,Workstation,Normal,C:\WINNT\System32\services.exe,True,Auto,LocalSystem,
DC1,LicenseService,Own Process,Running,0,916,False,True,License Logging Service,License Logging Service,False,License Logging Service,Normal,C:\WINNT\System32\llssrv.exe,True,Auto,LocalSystem,
DC1,LmHosts,Share Process,Running,0,236,False,True,TCP/IP NetBIOS Helper Service,TCP/IP NetBIOS Helper Service,False,TCP/IP NetBIOS Helper Service,Normal,C:\WINNT\System32\services.exe,True,Auto,LocalSystem,
DC1,Messenger,Share Process,Running,0,236,False,True,Messenger,Messenger,False,Messenger,Normal,C:\WINNT\System32\services.exe,True,Auto,LocalSystem,
DC1,mnmsrvc,Own Process,Stopped,1077,0,False,False,NetMeeting Remote Desktop Sharing,NetMeeting Remote Desktop Sharing,True,NetMeeting Remote Desktop Sharing,Normal,C:\WINNT\System32\mnmsrvc.exe,False,Manual,LocalSystem,
DC1,MSDTC,Own Process,Running,0,716,False,True,Distributed Transaction Coordinator,Distributed Transaction Coordinator,True,Distributed Transaction Coordinator,Normal,C:\WINNT\System32\msdtc.exe,True,Auto,LocalSystem,
DC1,MSIServer,Share Process,Stopped,1077,0,False,False,Windows Installer,Windows Installer,True,Windows Installer,Normal,C:\WINNT\system32\msiexec.exe /V,False,Manual,LocalSystem,
DC1,NetDDE,Share Process,Stopped,1077,0,False,False,Network DDE,Network DDE,False,Network DDE,Normal,C:\WINNT\system32\netdde.exe,False,Manual,LocalSystem,
DC1,NetDDEdsdm,Share Process,Stopped,1077,0,False,False,Network DDE DSDM,Network DDE DSDM,False,Network DDE DSDM,Normal,C:\WINNT\system32\netdde.exe,False,Manual,LocalSystem,
DC1,Netlogon,Share Process,Running,0,248,True,True,Net Logon,Net Logon,False,Net Logon,Normal,C:\WINNT\System32\lsass.exe,True,Auto,LocalSystem,
DC1,Netman,Share Process,Running,0,876,False,True,Network Connections,Network Connections,True,Network Connections,Normal,C:\WINNT\System32\svchost.exe -k netsvcs,True,Manual,LocalSystem,
DC1,Norton AntiVirus Server,Own Process,Running,0,980,False,True,Symantec AntiVirus Client,Symantec AntiVirus Client,True,Symantec AntiVirus Client,Ignore,C:\PROGRA~1\NavNT\Rtvscan.exe,True,Auto,LocalSystem,
DC1,NSDUAgent,Own Process,Running,0,612,False,True,NSC Agent,NSC Agent,True,NSC Agent,Normal,C:\NAgent\NSCAGENT.EXE,True,Auto,LocalSystem,
DC1,NtFrs,Own Process,Running,0,1052,False,True,File Replication Service,File Replication Service,False,File Replication Service,Ignore,C:\WINNT\system32\ntfrs.exe,True,Auto,LocalSystem,
DC1,NtLmSsp,Share Process,Running,0,248,False,True,NT LM Security Support Provider,NT LM Security Support Provider,False,NT LM Security Support Provider,Normal,C:\WINNT\System32\lsass.exe,True,Manual,LocalSystem,
DC1,NtmsSvc,Share Process,Running,0,876,True,True,Removable Storage,Removable Storage,True,Removable Storage,Normal,C:\WINNT\System32\svchost.exe -k netsvcs,True,Auto,LocalSystem,
DC1,PlugPlay,Share Process,Running,0,236,False,False,Plug and Play,Plug and Play,False,Plug and Play,Normal,C:\WINNT\system32\services.exe,True,Auto,LocalSystem,
DC1,PolicyAgent,Share Process,Running,0,248,False,True,IPSEC Policy Agent,IPSEC Policy Agent,False,IPSEC Policy Agent,Normal,C:\WINNT\System32\lsass.exe,True,Auto,LocalSystem,
DC1,ProtectedStorage,Share Process,Running,0,236,False,True,Protected Storage,Protected Storage,True,Protected Storage,Normal,C:\WINNT\system32\services.exe,True,Auto,LocalSystem,
DC1,RasAuto,Share Process,Stopped,1077,0,False,False,Remote Access Auto Connection Manager,Remote Access Auto Connection Manager,True,Remote Access Auto Connection Manager,Normal,C:\WINNT\System32\svchost.exe -k netsvcs,False,Manual,LocalSystem,
DC1,RasMan,Share Process,Running,0,876,False,True,Remote Access Connection Manager,Remote Access Connection Manager,True,Remote Access Connection Manager,Normal,C:\WINNT\System32\svchost.exe -k netsvcs,True,Manual,LocalSystem,
DC1,RemoteAccess,Share Process,Stopped,1077,0,False,False,Routing and Remote Access,Routing and Remote Access,True,Routing and Remote Access,Normal,C:\WINNT\System32\svchost.exe -k netsvcs,False,Disabled,LocalSystem,
DC1,RemoteRegistry,Own Process,Running,0,1112,False,True,Remote Registry Service,Remote Registry Service,False,Remote Registry Service,Normal,C:\WINNT\system32\regsvc.exe,True,Auto,LocalSystem,
DC1,RpcLocator,Own Process,Running,0,1124,True,True,Remote Procedure Call (RPC) Locator,Remote Procedure Call (RPC) Locator,False,Remote Procedure Call (RPC) Locator,Normal,C:\WINNT\System32\locator.exe,True,Auto,LocalSystem,
DC1,RpcSs,Share Process,Running,0,444,False,False,Remote Procedure Call (RPC),Remote Procedure Call (RPC),False,Remote Procedure Call (RPC),Normal,C:\WINNT\system32\svchost -k rpcss,True,Auto,LocalSystem,
DC1,RSVP,Own Process,Stopped,1077,0,False,False,QoS RSVP,QoS RSVP,True,QoS RSVP,Normal,C:\WINNT\System32\rsvp.exe -s,False,Manual,LocalSystem,
DC1,SamSs,Share Process,Running,0,248,False,False,Security Accounts Manager,Security Accounts Manager,False,Security Accounts Manager,Normal,C:\WINNT\system32\lsass.exe,True,Auto,LocalSystem,
DC1,SCardDrv,Share Process,Stopped,1077,0,False,False,Smart Card Helper,Smart Card Helper,False,Smart Card Helper,Ignore,C:\WINNT\System32\SCardSvr.exe,False,Manual,LocalSystem,
DC1,SCardSvr,Share Process,Stopped,1077,0,False,False,Smart Card,Smart Card,False,Smart Card,Ignore,C:\WINNT\System32\SCardSvr.exe,False,Manual,LocalSystem,
DC1,Schedule,Share Process,Running,0,1136,True,True,Task Scheduler,Task Scheduler,True,Task Scheduler,Normal,C:\WINNT\system32\MSTask.exe,True,Auto,LocalSystem,
DC1,seclogon,Share Process,Running,0,236,False,True,RunAs Service,RunAs Service,True,RunAs Service,Ignore,C:\WINNT\system32\services.exe,True,Auto,LocalSystem,
DC1,SENS,Share Process,Running,0,876,False,True,System Event Notification,System Event Notification,False,System Event Notification,Normal,C:\WINNT\system32\svchost.exe -k netsvcs,True,Auto,LocalSystem,
DC1,SharedAccess,Share Process,Stopped,1077,0,False,False,Internet Connection Sharing,Internet Connection Sharing,True,Internet Connection Sharing,Normal,C:\WINNT\System32\svchost.exe -k netsvcs,False,Manual,LocalSystem,
DC1,Spooler,Own Process,Running,0,488,False,True,Print Spooler,Print Spooler,True,Print Spooler,Normal,C:\WINNT\system32\spoolsv.exe,True,Auto,LocalSystem,
DC1,SysmonLog,Own Process,Stopped,1077,0,False,False,Performance Logs and Alerts,Performance Logs and Alerts,False,Performance Logs and Alerts,Normal,C:\WINNT\system32\smlogsvc.exe,False,Manual,LocalSystem,
DC1,TapiSrv,Share Process,Running,0,1736,True,True,Telephony,Telephony,True,Telephony,Normal,C:\WINNT\System32\svchost.exe -k tapisrv,True,Manual,LocalSystem,
DC1,TermService,Own Process,Stopped,1077,0,False,False,Terminal Services,Terminal Services,False,Terminal Services,Normal,C:\WINNT\System32\termsrv.exe,False,Disabled,LocalSystem,
DC1,TlntSvr,Own Process,Stopped,1077,0,False,False,Telnet,Telnet,False,Telnet,Normal,C:\WINNT\system32\tlntsvr.exe,False,Manual,LocalSystem,
DC1,TrkSvr,Share Process,Running,0,236,False,True,Distributed Link Tracking Server,Distributed Link Tracking Server,False,Distributed Link Tracking Server,Normal,C:\WINNT\system32\services.exe,True,Auto,LocalSystem,
DC1,TrkWks,Share Process,Running,0,236,False,True,Distributed Link Tracking Client,Distributed Link Tracking Client,False,Distributed Link Tracking Client,Normal,C:\WINNT\system32\services.exe,True,Auto,LocalSystem,
DC1,UPS,Own Process,Stopped,1077,0,False,False,Uninterruptible Power Supply,Uninterruptible Power Supply,True,Uninterruptible Power Supply,Normal,C:\WINNT\System32\ups.exe,False,Manual,LocalSystem,
DC1,UtilMan,Own Process,Stopped,1077,0,False,False,Utility Manager,Utility Manager,True,Utility Manager,Normal,C:\WINNT\System32\UtilMan.exe,False,Manual,LocalSystem,
DC1,W32Time,Share Process,Running,0,236,False,True,Windows Time,Windows Time,False,Windows Time,Normal,C:\WINNT\System32\services.exe,True,Auto,LocalSystem,
DC1,WinMgmt,Own Process,Running,0,1172,False,True,Windows Management Instrumentation,Windows Management Instrumentation,False,Windows Management Instrumentation,Ignore,C:\WINNT\System32\WBEM\WinMgmt.exe,True,Auto,LocalSystem,
DC1,WINS,Own Process,Running,0,1212,True,True,Windows Internet Name Service (WINS),Windows Internet Name Service (WINS),False,Windows Internet Name Service (WINS),Normal,C:\WINNT\System32\wins.exe,True,Auto,LocalSystem,
DC1,Wmi,Share Process,Running,0,236,False,True,Windows Management Instrumentation Driver Extensions,Windows Management Instrumentation Driver Extensions,False,Windows Management Instrumentation Driver Extensions,Normal,C:\WINNT\system32\Services.exe,True,Manual,LocalSystem,
DC1,wuauserv,Share Process,Running,0,1224,False,True,Automatic Updates,Automatic Updates,False,Automatic Updates,Normal,C:\WINNT\system32\svchost.exe -k wugroup,True,Auto,LocalSystem,
