Computer,Allow Internet programs,Autoconfiguration URL,Auto disconnect,Autoconfiguration proxy detection mode,Data encryption,Default,Default Gateway,Dialup server,Disconnect idle time,Encrypted password,IP address,IP header compression,Modem,Name,Network logon,Network protocols,Primary DNS server,Primary WINS server,Proxy,Proxy override,Proxy server,Redial attempts,Redial wait,Script fileame,Secondary DNS server,Secondary WINS server,Server assigned IP address,Server assigned name server,Software compression
192.168.23.2,
Computer,Allow Internet programs,Autoconfiguration URL,Auto disconnect,Autoconfiguration proxy detection mode,Data encryption,Default,Default Gateway,Dialup server,Disconnect idle time,Encrypted password,IP address,IP header compression,Modem,Name,Network logon,Network protocols,Primary DNS server,Primary WINS server,Proxy,Proxy override,Proxy server,Redial attempts,Redial wait,Script fileame,Secondary DNS server,Secondary WINS server,Server assigned IP address,Server assigned name server,Software compression
192.168.23.3,
