Applications,Caption,Description,Identifying Number,Install Date,Install Location,Install State,Name,Package Cache,SKU Number,Vendor,Version
Microsoft Outlook 2000 SR-1,Microsoft Outlook 2000 SR-1,{00160409-78E1-11D2-B60F-006097C998E7},20030121,,5,Microsoft Outlook 2000 SR-1,C:\WINNT\Installer\231eaa9d.msi,,Microsoft Corporation,9.00.3821,
WebFldrs,WebFldrs,{6F716D8C-398F-11D3-85E1-005004838609},20010809,,5,WebFldrs,C:\WINNT\Installer\17948a.msi,,Microsoft Corporation,9.00.3907,
